{
	"info": {
		"_postman_id": "e3640545-fab8-4ec5-9462-5322bbcdd187",
		"name": "Teste Api Residuos",
		"schema": "https://schema.getpostman.com/json/collection/v2.1.0/collection.json"
	},
	"item": [
		{
			"name": "Planilhas",
			"item": [
				{
					"name": "Importação da Planilha de Resíduos",
					"request": {
						"method": "POST",
						"header": [],
						"body": {
							"mode": "formdata",
							"formdata": [
								{
									"key": "arquivo",
									"type": "file",
									"src": "/C:/Users/gabri/Downloads/planilha_residuos.xlsx"
								}
							]
						},
						"url": {
							"raw": "http://localhost:8000/api/planilhas",
							"protocol": "http",
							"host": [
								"localhost"
							],
							"port": "8000",
							"path": [
								"api",
								"planilhas"
							]
						}
					},
					"response": []
				},
				{
					"name": "Lista todas as Planilhas importadas",
					"request": {
						"method": "GET",
						"header": [],
						"url": {
							"raw": "http://localhost:8000/api/planilhas",
							"protocol": "http",
							"host": [
								"localhost"
							],
							"port": "8000",
							"path": [
								"api",
								"planilhas"
							]
						}
					},
					"response": []
				},
				{
					"name": "Busca Planilha pelo Id",
					"request": {
						"method": "GET",
						"header": [],
						"url": {
							"raw": "http://localhost:8000/api/planilhas/29",
							"protocol": "http",
							"host": [
								"localhost"
							],
							"port": "8000",
							"path": [
								"api",
								"planilhas",
								"29"
							]
						}
					},
					"response": []
				},
				{
					"name": "Busca Planilhas que não foram processadas",
					"request": {
						"method": "GET",
						"header": [],
						"url": {
							"raw": "http://localhost:8000/api/planilhas/status/unprocessed",
							"protocol": "http",
							"host": [
								"localhost"
							],
							"port": "8000",
							"path": [
								"api",
								"planilhas",
								"status",
								"unprocessed"
							]
						}
					},
					"response": []
				}
			]
		},
		{
			"name": "Resíduos",
			"item": [
				{
					"name": "Lista todos os Resíduos cadastrados",
					"request": {
						"method": "GET",
						"header": [],
						"url": {
							"raw": "http://localhost:8000/api/residuos",
							"protocol": "http",
							"host": [
								"localhost"
							],
							"port": "8000",
							"path": [
								"api",
								"residuos"
							]
						}
					},
					"response": []
				},
				{
					"name": "Busca Resíduo pelo Id",
					"request": {
						"method": "GET",
						"header": [],
						"url": {
							"raw": "http://localhost:8000/api/residuos/1",
							"protocol": "http",
							"host": [
								"localhost"
							],
							"port": "8000",
							"path": [
								"api",
								"residuos",
								"1"
							]
						}
					},
					"response": []
				},
				{
					"name": "Exclui Resíduo pelo Id",
					"request": {
						"method": "DELETE",
						"header": [],
						"url": {
							"raw": "http://localhost:8000/api/residuos/1",
							"protocol": "http",
							"host": [
								"localhost"
							],
							"port": "8000",
							"path": [
								"api",
								"residuos",
								"1"
							]
						}
					},
					"response": []
				},
				{
					"name": "New Request",
					"request": {
						"method": "GET",
						"header": [],
						"url": null
					},
					"response": []
				},
				{
					"name": "Alteração de dados do Resíduo",
					"request": {
						"method": "PUT",
						"header": [],
						"url": {
							"raw": "http://localhost:8000/api/residuos/3?nome_comum_residuo=Máscaras Contaminas",
							"protocol": "http",
							"host": [
								"localhost"
							],
							"port": "8000",
							"path": [
								"api",
								"residuos",
								"3"
							],
							"query": [
								{
									"key": "nome_comum_residuo",
									"value": "Máscaras Contaminas"
								}
							]
						}
					},
					"response": []
				}
			]
		}
	]
}